<?xml version='1.0' encoding='UTF-8' ?>
<svg xmlns='http://www.w3.org/2000/svg' xmlns:xlink='http://www.w3.org/1999/xlink' viewBox='0 0 504.00 216.00'>
<defs>
  <style type='text/css'><![CDATA[
    line, polyline, path, rect, circle {
      fill: none;
      stroke: #000000;
      stroke-linecap: round;
      stroke-linejoin: round;
      stroke-miterlimit: 10.00;
    }
  ]]></style>
</defs>
<rect width='100%' height='100%' style='stroke: none; fill: #FFFFFF;'/>
<defs>
  <clipPath id='cpMHw1MDR8MjA3Ljk5Mnw4LjAwODA2'>
    <rect x='0.00' y='8.01' width='504.00' height='199.98' />
  </clipPath>
</defs>
<rect x='0.00' y='8.01' width='504.00' height='199.98' style='stroke-width: 1.07; stroke: #FFFFFF; fill: #FFFFFF;' clip-path='url(#cpMHw1MDR8MjA3Ljk5Mnw4LjAwODA2)' />
<defs>
  <clipPath id='cpMHw1MDR8MjE2fDA='>
    <rect x='0.00' y='0.00' width='504.00' height='216.00' />
  </clipPath>
</defs>
<defs>
  <clipPath id='cpMjEuMDA1OHwxOTQuNTA0fDE4Ni45ODZ8MTMuNDg3NQ=='>
    <rect x='21.01' y='13.49' width='173.50' height='173.50' />
  </clipPath>
</defs>
<polyline points='107.76,53.97 110.12,54.03 112.47,54.21 114.82,54.51 117.14,54.93 119.44,55.47 121.71,56.13 123.95,56.90 126.14,57.78 128.28,58.77 130.37,59.88 132.41,61.08 134.37,62.39 136.27,63.80 138.09,65.31 139.84,66.90 141.50,68.58 143.07,70.35 144.55,72.19 145.93,74.10 147.22,76.09 148.40,78.13 149.48,80.24 150.44,82.40 151.30,84.60 152.04,86.84 152.67,89.12 153.18,91.43 153.57,93.76 153.84,96.11 153.99,98.46 154.02,100.83 153.93,103.19 153.72,105.54 153.39,107.88 152.94,110.20 152.37,112.50 151.68,114.76 150.88,116.98 149.97,119.16 148.95,121.29 147.82,123.37 146.59,125.39 145.25,127.34 143.82,129.22 142.30,131.02 140.68,132.74 138.98,134.38 137.19,135.93 135.33,137.39 133.40,138.75 131.40,140.01 129.34,141.16 127.22,142.21 125.05,143.15 122.84,143.98 120.58,144.69 118.30,145.29 115.98,145.77 113.65,146.13 111.30,146.37 108.94,146.49 106.57,146.49 104.21,146.37 101.86,146.13 99.53,145.77 97.21,145.29 94.93,144.69 92.67,143.98 90.46,143.15 88.29,142.21 86.17,141.16 84.11,140.01 82.11,138.75 80.18,137.39 78.32,135.93 76.53,134.38 74.83,132.74 73.21,131.02 71.69,129.22 70.26,127.34 68.92,125.39 67.69,123.37 66.56,121.29 65.54,119.16 64.63,116.98 63.83,114.76 63.14,112.50 62.57,110.20 62.12,107.88 61.79,105.54 61.58,103.19 61.49,100.83 61.52,98.46 61.67,96.11 61.94,93.76 62.34,91.43 62.84,89.12 63.47,86.84 64.21,84.60 65.07,82.40 66.03,80.24 67.11,78.13 68.29,76.09 69.58,74.10 70.96,72.19 72.44,70.35 74.01,68.58 75.67,66.90 77.42,65.31 79.24,63.80 81.14,62.39 83.10,61.08 85.14,59.88 87.23,58.77 89.37,57.78 91.56,56.90 93.80,56.13 96.07,55.47 98.37,54.93 100.69,54.51 103.04,54.21 105.39,54.03 107.76,53.97 107.76,56.54 107.76,59.11 107.76,61.68 107.76,64.25 107.76,66.82 107.76,69.39 107.76,71.96 107.76,74.53 107.76,77.10 105.38,77.23 103.02,77.59 100.72,78.20 98.49,79.04 96.36,80.10 94.35,81.38 92.48,82.86 90.78,84.52 89.25,86.35 87.92,88.33 86.80,90.43 85.91,92.64 85.24,94.92 84.81,97.27 84.63,99.64 84.69,102.02 85.00,104.38 85.54,106.70 86.33,108.95 87.34,111.11 88.56,113.15 89.99,115.06 91.61,116.80 93.40,118.38 95.34,119.76 97.41,120.93 99.59,121.88 101.86,122.61 104.20,123.09 106.56,123.34 108.95,123.34 111.32,123.09 113.65,122.61 115.92,121.88 118.10,120.93 120.17,119.76 122.11,118.38 123.90,116.80 125.52,115.06 126.95,113.15 128.17,111.11 129.18,108.95 129.97,106.70 130.51,104.38 130.82,102.02 130.88,99.64 130.70,97.27 130.27,94.92 129.60,92.64 128.71,90.43 127.59,88.33 126.26,86.35 124.73,84.52 123.03,82.86 121.16,81.38 119.15,80.10 117.02,79.04 114.79,78.20 112.49,77.59 110.13,77.23 107.76,77.10 107.76,74.53 107.76,71.96 107.76,69.39 107.76,66.82 107.76,64.25 107.76,61.68 107.76,59.11 107.76,56.54 107.76,53.97 ' style='stroke-width: 1.07; fill: #333333;' clip-path='url(#cpMjEuMDA1OHwxOTQuNTA0fDE4Ni45ODZ8MTMuNDg3NQ==)' />
<polyline points='107.76,30.84 110.11,30.88 112.47,31.00 114.81,31.20 117.15,31.48 119.48,31.84 121.80,32.27 124.10,32.79 126.38,33.38 128.64,34.05 130.87,34.80 133.08,35.62 135.26,36.52 137.41,37.49 139.52,38.54 141.60,39.65 143.64,40.83 145.64,42.09 147.59,43.41 149.49,44.79 151.35,46.24 153.16,47.75 154.92,49.33 156.62,50.96 158.26,52.64 159.85,54.39 161.38,56.18 162.84,58.03 164.24,59.92 165.58,61.86 166.85,63.85 168.05,65.88 169.18,67.95 170.25,70.05 171.23,72.19 172.15,74.36 172.99,76.56 173.76,78.79 171.31,79.59 168.87,80.38 166.42,81.17 163.98,81.97 161.54,82.76 159.09,83.56 156.65,84.35 154.20,85.15 151.76,85.94 150.95,83.66 150.02,81.42 148.98,79.23 147.82,77.10 146.56,75.04 145.19,73.04 143.71,71.12 142.14,69.28 140.47,67.52 138.71,65.85 136.87,64.28 134.95,62.81 132.95,61.43 130.89,60.17 128.76,59.01 126.57,57.97 124.34,57.04 122.05,56.23 119.73,55.55 117.37,54.98 114.99,54.54 112.59,54.22 110.18,54.03 107.76,53.97 107.76,51.40 107.76,48.83 107.76,46.26 107.76,43.69 107.76,41.12 107.76,38.55 107.76,35.98 107.76,33.41 107.76,30.84 ' style='stroke-width: 1.07; fill: #6A6A6A;' clip-path='url(#cpMjEuMDA1OHwxOTQuNTA0fDE4Ni45ODZ8MTMuNDg3NQ==)' />
<polyline points='173.76,78.79 174.45,81.04 175.06,83.32 175.60,85.62 176.05,87.93 176.43,90.25 176.73,92.59 176.95,94.94 177.09,97.29 177.15,99.65 177.13,102.00 177.03,104.36 176.85,106.71 176.59,109.05 176.25,111.38 175.84,113.70 175.34,116.01 174.76,118.29 174.11,120.56 173.38,122.80 172.58,125.02 171.70,127.20 170.75,129.36 169.72,131.48 168.63,133.57 167.46,135.61 166.22,137.62 164.92,139.59 163.55,141.50 162.12,143.37 160.62,145.20 159.07,146.97 157.45,148.68 155.78,150.34 154.05,151.94 152.26,153.48 150.43,154.96 148.55,156.38 147.04,154.30 145.53,152.22 144.01,150.14 142.50,148.06 140.99,145.98 139.48,143.91 137.97,141.83 136.46,139.75 134.95,137.67 136.87,136.19 138.71,134.62 140.47,132.95 142.14,131.20 143.71,129.35 145.19,127.43 146.56,125.44 147.82,123.37 148.98,121.24 150.02,119.06 150.95,116.82 151.76,114.53 152.44,112.21 153.01,109.86 153.45,107.47 153.77,105.07 153.96,102.66 154.02,100.24 153.96,97.82 153.77,95.40 153.45,93.00 153.01,90.62 152.44,88.26 151.76,85.94 154.20,85.15 156.65,84.35 159.09,83.56 161.54,82.76 163.98,81.97 166.42,81.17 168.87,80.38 171.31,79.59 173.76,78.79 ' style='stroke-width: 1.07; fill: #8B8B8B;' clip-path='url(#cpMjEuMDA1OHwxOTQuNTA0fDE4Ni45ODZ8MTMuNDg3NQ==)' />
<polyline points='148.55,156.38 146.62,157.73 144.64,159.02 142.62,160.24 140.57,161.39 138.47,162.47 136.34,163.48 134.18,164.41 131.98,165.27 129.76,166.06 127.51,166.76 125.24,167.40 122.95,167.95 120.64,168.43 118.32,168.83 115.99,169.15 113.64,169.39 111.29,169.55 108.93,169.63 106.58,169.63 104.22,169.55 101.87,169.39 99.52,169.15 97.19,168.83 94.87,168.43 92.56,167.95 90.27,167.40 88.00,166.76 85.75,166.06 83.53,165.27 81.33,164.41 79.17,163.48 77.04,162.47 74.94,161.39 72.89,160.24 70.87,159.02 68.89,157.73 66.96,156.38 68.47,154.30 69.98,152.22 71.50,150.14 73.01,148.06 74.52,145.98 76.03,143.91 77.54,141.83 79.05,139.75 80.56,137.67 82.56,139.04 84.62,140.30 86.75,141.46 88.94,142.50 91.17,143.43 93.46,144.24 95.78,144.93 98.14,145.49 100.52,145.93 102.92,146.25 105.33,146.44 107.76,146.50 110.18,146.44 112.59,146.25 114.99,145.93 117.37,145.49 119.73,144.93 122.05,144.24 124.34,143.43 126.57,142.50 128.76,141.46 130.89,140.30 132.95,139.04 134.95,137.67 136.46,139.75 137.97,141.83 139.48,143.91 140.99,145.98 142.50,148.06 144.01,150.14 145.53,152.22 147.04,154.30 148.55,156.38 ' style='stroke-width: 1.07; fill: #A4A4A4;' clip-path='url(#cpMjEuMDA1OHwxOTQuNTA0fDE4Ni45ODZ8MTMuNDg3NQ==)' />
<polyline points='66.96,156.38 65.08,154.96 63.25,153.48 61.46,151.94 59.73,150.34 58.06,148.68 56.44,146.97 54.89,145.20 53.39,143.37 51.96,141.50 50.59,139.59 49.29,137.62 48.05,135.61 46.88,133.57 45.79,131.48 44.76,129.36 43.81,127.20 42.93,125.02 42.13,122.80 41.40,120.56 40.75,118.29 40.17,116.01 39.67,113.70 39.26,111.38 38.92,109.05 38.66,106.71 38.48,104.36 38.38,102.00 38.36,99.65 38.42,97.29 38.56,94.94 38.78,92.59 39.08,90.25 39.46,87.93 39.91,85.62 40.45,83.32 41.06,81.04 41.75,78.79 44.20,79.59 46.64,80.38 49.09,81.17 51.53,81.97 53.98,82.76 56.42,83.56 58.86,84.35 61.31,85.15 63.75,85.94 63.07,88.26 62.50,90.62 62.06,93.00 61.74,95.40 61.55,97.82 61.49,100.24 61.55,102.66 61.74,105.07 62.06,107.47 62.50,109.86 63.07,112.21 63.75,114.53 64.56,116.82 65.49,119.06 66.53,121.24 67.69,123.37 68.95,125.44 70.32,127.43 71.80,129.35 73.37,131.20 75.04,132.95 76.80,134.62 78.64,136.19 80.56,137.67 79.05,139.75 77.54,141.83 76.03,143.91 74.52,145.98 73.01,148.06 71.50,150.14 69.98,152.22 68.47,154.30 66.96,156.38 ' style='stroke-width: 1.07; fill: #B9B9B9;' clip-path='url(#cpMjEuMDA1OHwxOTQuNTA0fDE4Ni45ODZ8MTMuNDg3NQ==)' />
<polyline points='41.75,78.79 42.52,76.56 43.36,74.36 44.28,72.19 45.26,70.05 46.33,67.95 47.46,65.88 48.66,63.85 49.93,61.86 51.27,59.92 52.67,58.03 54.13,56.18 55.66,54.39 57.25,52.64 58.89,50.96 60.59,49.33 62.35,47.75 64.16,46.24 66.02,44.79 67.92,43.41 69.88,42.09 71.87,40.83 73.91,39.65 75.99,38.54 78.10,37.49 80.25,36.52 82.43,35.62 84.64,34.80 86.87,34.05 89.13,33.38 91.41,32.79 93.71,32.27 96.03,31.84 98.36,31.48 100.70,31.20 103.04,31.00 105.40,30.88 107.76,30.84 107.76,33.41 107.76,35.98 107.76,38.55 107.76,41.12 107.76,43.69 107.76,46.26 107.76,48.83 107.76,51.40 107.76,53.97 105.33,54.03 102.92,54.22 100.52,54.54 98.14,54.98 95.78,55.55 93.46,56.23 91.17,57.04 88.94,57.97 86.75,59.01 84.62,60.17 82.56,61.43 80.56,62.81 78.64,64.28 76.80,65.85 75.04,67.52 73.37,69.28 71.80,71.12 70.32,73.04 68.95,75.04 67.69,77.10 66.53,79.23 65.49,81.42 64.56,83.66 63.75,85.94 61.31,85.15 58.86,84.35 56.42,83.56 53.98,82.76 51.53,81.97 49.09,81.17 46.64,80.38 44.20,79.59 41.75,78.79 ' style='stroke-width: 1.07; fill: #CCCCCC;' clip-path='url(#cpMjEuMDA1OHwxOTQuNTA0fDE4Ni45ODZ8MTMuNDg3NQ==)' />
<defs>
  <clipPath id='cpMHw1MDR8MjE2fDA='>
    <rect x='0.00' y='0.00' width='504.00' height='216.00' />
  </clipPath>
</defs>
<rect x='205.46' y='35.15' width='293.06' height='130.17' style='stroke-width: 1.07; stroke: none; fill: #FFFFFF;' clip-path='url(#cpMHw1MDR8MjE2fDA=)' />
<g clip-path='url(#cpMHw1MDR8MjE2fDA=)'><text x='210.94' y='49.44' style='font-size: 11.00px; font-family: Liberation Sans;' textLength='33.62px' lengthAdjust='spacingAndGlyphs'>Effects</text></g>
<rect x='210.94' y='56.16' width='17.28' height='17.28' style='stroke-width: 1.07; stroke: #FFFFFF; fill: #F2F2F2;' clip-path='url(#cpMHw1MDR8MjE2fDA=)' />
<rect x='211.65' y='56.87' width='15.86' height='15.86' style='stroke-width: 1.07; stroke-linejoin: miter; fill: #333333;' clip-path='url(#cpMHw1MDR8MjE2fDA=)' />
<rect x='210.94' y='73.44' width='17.28' height='17.28' style='stroke-width: 1.07; stroke: #FFFFFF; fill: #F2F2F2;' clip-path='url(#cpMHw1MDR8MjE2fDA=)' />
<rect x='211.65' y='74.15' width='15.86' height='15.86' style='stroke-width: 1.07; stroke-linejoin: miter; fill: #6A6A6A;' clip-path='url(#cpMHw1MDR8MjE2fDA=)' />
<rect x='210.94' y='90.72' width='17.28' height='17.28' style='stroke-width: 1.07; stroke: #FFFFFF; fill: #F2F2F2;' clip-path='url(#cpMHw1MDR8MjE2fDA=)' />
<rect x='211.65' y='91.43' width='15.86' height='15.86' style='stroke-width: 1.07; stroke-linejoin: miter; fill: #8B8B8B;' clip-path='url(#cpMHw1MDR8MjE2fDA=)' />
<rect x='210.94' y='108.00' width='17.28' height='17.28' style='stroke-width: 1.07; stroke: #FFFFFF; fill: #F2F2F2;' clip-path='url(#cpMHw1MDR8MjE2fDA=)' />
<rect x='211.65' y='108.71' width='15.86' height='15.86' style='stroke-width: 1.07; stroke-linejoin: miter; fill: #A4A4A4;' clip-path='url(#cpMHw1MDR8MjE2fDA=)' />
<rect x='210.94' y='125.28' width='17.28' height='17.28' style='stroke-width: 1.07; stroke: #FFFFFF; fill: #F2F2F2;' clip-path='url(#cpMHw1MDR8MjE2fDA=)' />
<rect x='211.65' y='125.99' width='15.86' height='15.86' style='stroke-width: 1.07; stroke-linejoin: miter; fill: #B9B9B9;' clip-path='url(#cpMHw1MDR8MjE2fDA=)' />
<rect x='210.94' y='142.56' width='17.28' height='17.28' style='stroke-width: 1.07; stroke: #FFFFFF; fill: #F2F2F2;' clip-path='url(#cpMHw1MDR8MjE2fDA=)' />
<rect x='211.65' y='143.27' width='15.86' height='15.86' style='stroke-width: 1.07; stroke-linejoin: miter; fill: #CCCCCC;' clip-path='url(#cpMHw1MDR8MjE2fDA=)' />
<g clip-path='url(#cpMHw1MDR8MjE2fDA=)'><text x='233.70' y='67.89' style='font-size: 8.80px; font-family: Liberation Sans;' textLength='259.34px' lengthAdjust='spacingAndGlyphs'>R0 - process - Random + Timestamps + WebClient + WebServer</text></g>
<g clip-path='url(#cpMHw1MDR8MjE2fDA=)'><text x='233.70' y='85.17' style='font-size: 8.80px; font-family: Liberation Sans;' textLength='110.02px' lengthAdjust='spacingAndGlyphs'>R10 - recvCity - WebServer</text></g>
<g clip-path='url(#cpMHw1MDR8MjE2fDA=)'><text x='233.70' y='102.45' style='font-size: 8.80px; font-family: Liberation Sans;' textLength='100.04px' lengthAdjust='spacingAndGlyphs'>R11 - randUID - Random</text></g>
<g clip-path='url(#cpMHw1MDR8MjE2fDA=)'><text x='233.70' y='119.73' style='font-size: 8.80px; font-family: Liberation Sans;' textLength='124.53px' lengthAdjust='spacingAndGlyphs'>R12 - timeStamp - Timestamps</text></g>
<g clip-path='url(#cpMHw1MDR8MjE2fDA=)'><text x='233.70' y='137.01' style='font-size: 8.80px; font-family: Liberation Sans;' textLength='109.54px' lengthAdjust='spacingAndGlyphs'>R13 - getTemp - WebClient</text></g>
<g clip-path='url(#cpMHw1MDR8MjE2fDA=)'><text x='233.70' y='154.29' style='font-size: 8.80px; font-family: Liberation Sans;' textLength='120.04px' lengthAdjust='spacingAndGlyphs'>R14 - sendTemp - WebServer</text></g>
</svg>
